19봄 동비 미납부자 명단
(2019.05.17 기준)

<공연단원>
첼로	고승훈	
퍼스트	김명철	
금타	김바울	
금타	김세인	
베이스	김예원	
첼로	김이진	
비올라	김재준	
금타	노주환	
목관	노준탁	
퍼스트	민준희	
비올라	박도훈	
목관	박민성	
퍼스트	박유화	
세컨	송영우	
퍼스트	송정훈	
베이스	양윤서	
베이스	윤재훈	
세컨	이상현	
베이스	이승재	
퍼스트	이재욱	
세컨	이준영	
목관	이준영	
목관	이진우	
세컨	이찬희	
세컨	임다영	
세컨	임예섭	
첼로	정예원	
목관	정찬이	
비올라	최은진	
금타	최현호	
세컨	허성범	


<비공연 단원>
첼로	천정환	
비올라	고재혁	
비올라	이민용	
비올라	강성희	
비올라	나지웅	
베이스	이승현	
베이스	정승안	
목관	정상준	
금타	권준호	
